Hexadecimalto7Seg/simulation/qsim/Hexadecimalto7Seg.msim.vcd
$comment
	File created using the following command:
		vcd file Hexadecimalto7Seg.msim.vcd -direction
$end
$date
	Sat Nov 09 19:52:05 2024
$end
$version
	ModelSim Version 10.5b
$end
$timescale
	1ps
$end

$scope module Hexadecimalto7Seg_vlg_vec_tst $end
$var reg 4 ! A [3:0] $end
$var wire 1 " D [6] $end
$var wire 1 # D [5] $end
$var wire 1 $ D [4] $end
$var wire 1 % D [3] $end
$var wire 1 & D [2] $end
$var wire 1 ' D [1] $end
$var wire 1 ( D [0] $end

$scope module i1 $end
$var wire 1 ) gnd $end
$var wire 1 * vcc $end
$var wire 1 + unknown $end
$var tri1 1 , devclrn $end
$var tri1 1 - devpor $end
$var tri1 1 . devoe $end
$var wire 1 / ~QUARTUS_CREATED_GND~I_combout $end
$var wire 1 0 A[2]~input_o $end
$var wire 1 1 A[0]~input_o $end
$var wire 1 2 A[1]~input_o $end
$var wire 1 3 A[3]~input_o $end
$var wire 1 4 WideOr6~0_combout $end
$var wire 1 5 WideOr5~0_combout $end
$var wire 1 6 WideOr4~0_combout $end
$var wire 1 7 WideOr3~0_combout $end
$var wire 1 8 WideOr2~0_combout $end
$var wire 1 9 WideOr1~0_combout $end
$var wire 1 : WideOr0~0_combout $end
$upscope $end
$upscope $end
$enddefinitions $end
#0
$dumpvars
b1001 !
0(
0'
0&
0%
1$
0#
0"
0)
1*
x+
1,
1-
1.
0/
00
11
02
13
04
05
06
07
18
09
1:
$end
#140000
b1101 !
b1111 !
b1110 !
01
12
10
08
16
15
1'
1&
0$
#280000
b110 !
b100 !
02
03
18
17
06
05
14
1(
0'
0&
1%
1$
#420000
b0 !
b1 !
b11 !
11
12
00
19
07
04
0(
0%
1#
#560000
b111 !
10
0:
17
1%
1"
#700000
b11 !
00
1:
07
0%
0"
#840000
b1 !
02
0:
17
14
1(
1%
1"
#980000
b101 !
10
1:
09
07
15
04
0(
1'
0%
0#
0"
