DIGITAL_CLOCK/simulation/qsim/DIGITAL_CLOCK.msim.vcd
$comment
	File created using the following command:
		vcd file DIGITAL_CLOCK.msim.vcd -direction
$end
$date
	Sat Oct 26 12:40:34 2024
$end
$version
	ModelSim Version 10.5b
$end
$timescale
	1ps
$end

$scope module DIGITAL_CLOCK_vlg_vec_tst $end
$var reg 1 ! clock $end
$var reg 1 " enable $end
$var reg 1 # reset $end
$var wire 1 $ HOUR [3] $end
$var wire 1 % HOUR [2] $end
$var wire 1 & HOUR [1] $end
$var wire 1 ' HOUR [0] $end
$var wire 1 ( MINUTE [5] $end
$var wire 1 ) MINUTE [4] $end
$var wire 1 * MINUTE [3] $end
$var wire 1 + MINUTE [2] $end
$var wire 1 , MINUTE [1] $end
$var wire 1 - MINUTE [0] $end
$var wire 1 . SECOUND [5] $end
$var wire 1 / SECOUND [4] $end
$var wire 1 0 SECOUND [3] $end
$var wire 1 1 SECOUND [2] $end
$var wire 1 2 SECOUND [1] $end
$var wire 1 3 SECOUND [0] $end
$var wire 1 4 complete $end

$scope module i1 $end
$var wire 1 5 gnd $end
$var wire 1 6 vcc $end
$var wire 1 7 unknown $end
$var tri1 1 8 devclrn $end
$var tri1 1 9 devpor $end
$var tri1 1 : devoe $end
$var wire 1 ; ~QUARTUS_CREATED_GND~I_combout $end
$var wire 1 < clock~input_o $end
$var wire 1 = clock~inputCLKENA0_outclk $end
$var wire 1 > enable~input_o $end
$var wire 1 ? reset~input_o $end
$var wire 1 @ comb_3|RESULT[1]~1_combout $end
$var wire 1 A comb_3|RESULT[2]~2_combout $end
$var wire 1 B comb_3|Add0~0_combout $end
$var wire 1 C comb_3|RESULT[3]~3_combout $end
$var wire 1 D comb_3|RESULT[4]~4_combout $end
$var wire 1 E comb_3|Add0~1_combout $end
$var wire 1 F comb_3|RESULT[5]~5_combout $end
$var wire 1 G comb_3|Equal0~0_combout $end
$var wire 1 H comb_3|RESULT[0]~0_combout $end
$var wire 1 I comb_4|RESULT[1]~1_combout $end
$var wire 1 J comb_4|RESULT[2]~2_combout $end
$var wire 1 K comb_4|Add0~0_combout $end
$var wire 1 L comb_4|RESULT[3]~3_combout $end
$var wire 1 M comb_4|RESULT[4]~4_combout $end
$var wire 1 N comb_4|Add0~1_combout $end
$var wire 1 O comb_4|RESULT[5]~5_combout $end
$var wire 1 P comb_4|done~0_combout $end
$var wire 1 Q comb_4|RESULT[0]~0_combout $end
$var wire 1 R comb_5|RESULT[1]~3_combout $end
$var wire 1 S comb_5|Add0~0_combout $end
$var wire 1 T comb_5|RESULT[2]~1_combout $end
$var wire 1 U comb_5|Add0~1_combout $end
$var wire 1 V comb_5|RESULT[3]~2_combout $end
$var wire 1 W comb_5|done~0_combout $end
$var wire 1 X comb_5|RESULT[0]~0_combout $end
$var wire 1 Y comb_5|done~combout $end
$var wire 1 Z comb_5|RESULT [3] $end
$var wire 1 [ comb_5|RESULT [2] $end
$var wire 1 \ comb_5|RESULT [1] $end
$var wire 1 ] comb_5|RESULT [0] $end
$var wire 1 ^ comb_3|RESULT [5] $end
$var wire 1 _ comb_3|RESULT [4] $end
$var wire 1 ` comb_3|RESULT [3] $end
$var wire 1 a comb_3|RESULT [2] $end
$var wire 1 b comb_3|RESULT [1] $end
$var wire 1 c comb_3|RESULT [0] $end
$var wire 1 d comb_4|RESULT [5] $end
$var wire 1 e comb_4|RESULT [4] $end
$var wire 1 f comb_4|RESULT [3] $end
$var wire 1 g comb_4|RESULT [2] $end
$var wire 1 h comb_4|RESULT [1] $end
$var wire 1 i comb_4|RESULT [0] $end
$upscope $end
$upscope $end
$enddefinitions $end
#0
$dumpvars
0!
1"
0#
0'
0&
0%
0$
0-
0,
0+
0*
0)
0(
03
02
01
00
0/
0.
04
05
16
x7
18
19
1:
0;
0<
0=
1>
0?
0@
0A
0B
0C
0D
0E
0F
0G
1H
0I
0J
0K
0L
0M
0N
0O
0P
0Q
0R
0S
0T
0U
0V
0W
0X
0Y
0]
0\
0[
0Z
0c
0b
0a
0`
0_
0^
0i
0h
0g
0f
0e
0d
$end
#1000
1!
1<
1=
1c
13
0H
1@
#2000
0!
0<
0=
#3000
1!
1<
1=
0c
1b
12
03
1H
#4000
0!
0<
0=
#5000
1!
1<
1=
1c
13
0H
1A
0@
#6000
0!
0<
0=
#7000
1!
1<
1=
0c
1a
0b
02
11
03
1H
#8000
0!
0<
0=
#9000
1!
1<
1=
1c
13
0H
1@
#10000
0!
0<
0=
#11000
1!
1<
1=
0c
1b
12
03
1H
#12000
0!
0<
0=
#13000
1!
1<
1=
1c
13
1B
0H
0A
0@
1C
#14000
0!
0<
0=
#15000
1!
1<
1=
0c
1`
0a
0b
02
01
10
03
0B
1D
0C
1H
0D
1C
#16000
0!
0<
0=
#17000
1!
1<
1=
1c
13
0H
1@
#18000
0!
0<
0=
#19000
1!
1<
1=
0c
1b
12
03
1H
#20000
0!
0<
0=
#21000
1!
1<
1=
1c
13
0H
1A
0@
#22000
0!
0<
0=
#23000
1!
1<
1=
0c
1a
0b
02
11
03
1H
#24000
0!
0<
0=
#25000
1!
1<
1=
1c
13
0H
1@
#26000
0!
0<
0=
#27000
1!
1<
1=
0c
1b
12
03
1H
#28000
0!
0<
0=
#29000
1!
1<
1=
1c
13
1B
0H
0A
0@
1D
0C
#30000
0!
0<
0=
#31000
1!
1<
1=
0c
1_
0`
0a
0b
02
01
00
1/
03
0B
1C
1H
0C
#32000
0!
0<
0=
#33000
1!
1<
1=
1c
13
0H
1@
#34000
0!
0<
0=
#35000
1!
1<
1=
0c
1b
12
03
1H
#36000
0!
0<
0=
#37000
1!
1<
1=
1c
13
0H
1A
0@
#38000
0!
0<
0=
#39000
1!
1<
1=
0c
1a
0b
02
11
03
1H
#40000
0!
0<
0=
#41000
1!
1<
1=
1c
13
0H
1@
#42000
0!
0<
0=
#43000
1!
1<
1=
0c
1b
12
03
1H
#44000
0!
0<
0=
#45000
1!
1<
1=
1c
13
1B
0H
0A
0@
1C
#46000
0!
0<
0=
#47000
1!
1<
1=
0c
1`
0a
0b
02
01
10
03
0B
0D
0C
1H
1D
1C
#48000
0!
0<
0=
#49000
1!
1<
1=
1c
13
0H
1@
#50000
0!
0<
0=
#51000
1!
1<
1=
0c
1b
12
03
1H
#52000
0!
0<
0=
#53000
1!
1<
1=
1c
13
0H
1A
0@
#54000
0!
0<
0=
#55000
1!
1<
1=
0c
1a
0b
02
11
03
1H
#56000
0!
0<
0=
#57000
1!
1<
1=
1c
13
0H
1@
#58000
0!
0<
0=
#59000
1!
1<
1=
0c
1b
12
03
1H
#60000
0!
0<
0=
#61000
1!
1<
1=
1c
13
1E
1B
0H
0A
0@
0D
0C
1F
#62000
0!
0<
0=
#63000
1!
1<
1=
0c
1^
0_
0`
0a
0b
02
01
00
0/
1.
03
0E
0B
1C
0F
1H
0C
1F
#64000
0!
0<
0=
#65000
1!
1<
1=
1c
13
0H
1@
#66000
0!
0<
0=
#67000
1!
1<
1=
0c
1b
12
03
1H
#68000
0!
0<
0=
#69000
1!
1<
1=
1c
13
0H
1A
0@
#70000
0!
0<
0=
#71000
1!
1<
1=
0c
1a
0b
02
11
03
1H
#72000
0!
0<
0=
#73000
1!
1<
1=
1c
13
0H
1@
#74000
0!
0<
0=
#75000
1!
1<
1=
0c
1b
12
03
1H
#76000
0!
0<
0=
#77000
1!
1<
1=
1c
13
1B
0H
0A
0@
1C
#78000
0!
0<
0=
#79000
1!
1<
1=
0c
1`
0a
0b
02
01
10
03
0B
1D
0C
1H
0D
1C
#80000
0!
0<
0=
#81000
1!
1<
1=
1c
13
0H
1@
#82000
0!
0<
0=
#83000
1!
1<
1=
0c
1b
12
03
1H
#84000
0!
0<
0=
#85000
1!
1<
1=
1c
13
0H
1A
0@
#86000
0!
0<
0=
#87000
1!
1<
1=
0c
1a
0b
02
11
03
1H
#88000
0!
0<
0=
#89000
1!
1<
1=
1c
13
0H
1@
#90000
0!
0<
0=
#91000
1!
1<
1=
0c
1b
12
03
1H
#92000
0!
0<
0=
#93000
1!
1<
1=
1c
13
1B
0H
0A
0@
1D
0C
#94000
0!
0<
0=
#95000
1!
1<
1=
0c
1_
0`
0a
0b
02
01
00
1/
03
0B
1C
1H
0C
#96000
0!
0<
0=
#97000
1!
1<
1=
1c
13
0H
1@
#98000
0!
0<
0=
#99000
1!
1<
1=
0c
1b
12
03
1H
#100000
0!
0<
0=
#101000
1!
1<
1=
1c
13
0H
1A
0@
#102000
0!
0<
0=
#103000
1!
1<
1=
0c
1a
0b
02
11
03
1H
#104000
0!
0<
0=
#105000
1!
1<
1=
1c
13
0H
1@
#106000
0!
0<
0=
#107000
1!
1<
1=
0c
1b
12
03
1H
#108000
0!
0<
0=
#109000
1!
1<
1=
1c
13
1B
0H
0A
0@
1C
#110000
0!
0<
0=
#111000
1!
1<
1=
0c
1`
0a
0b
02
01
10
03
0B
0D
0C
1H
1D
1C
#112000
0!
0<
0=
#113000
1!
1<
1=
1c
13
0H
1@
#114000
0!
0<
0=
#115000
1!
1<
1=
0c
1b
12
03
1H
#116000
0!
0<
0=
#117000
1!
1<
1=
1c
13
1G
0H
1A
0@
1Q
0F
0D
0C
0A
#118000
0!
0<
0=
#119000
1!
1<
1=
1i
0c
0^
0_
0`
0b
02
00
0/
0.
03
1-
0G
0Q
1I
1Q
0I
1H
#120000
0!
0<
0=
#121000
1!
1<
1=
1c
13
0H
1@
#122000
0!
0<
0=
#123000
1!
1<
1=
0c
1b
12
03
1H
#124000
0!
0<
0=
#125000
1!
1<
1=
1c
13
0H
1A
0@
#126000
0!
0<
0=
#127000
1!
1<
1=
0c
1a
0b
02
11
03
1H
#128000
0!
0<
0=
#129000
1!
1<
1=
1c
13
0H
1@
#130000
0!
0<
0=
#131000
1!
1<
1=
0c
1b
12
03
1H
#132000
0!
0<
0=
#133000
1!
1<
1=
1c
13
1B
0H
0A
0@
1C
#134000
0!
0<
0=
#135000
1!
1<
1=
0c
1`
0a
0b
02
01
10
03
0B
1D
0C
1H
0D
1C
#136000
0!
0<
0=
#137000
1!
1<
1=
1c
13
0H
1@
#138000
0!
0<
0=
#139000
1!
1<
1=
0c
1b
12
03
1H
#140000
0!
0<
0=
#141000
1!
1<
1=
1c
13
0H
1A
0@
#142000
0!
0<
0=
#143000
1!
1<
1=
0c
1a
0b
02
11
03
1H
#144000
0!
0<
0=
#145000
1!
1<
1=
1c
13
0H
1@
#146000
0!
0<
0=
#147000
1!
1<
1=
0c
1b
12
03
1H
#148000
0!
0<
0=
#149000
1!
1<
1=
1c
13
1B
0H
0A
0@
1D
0C
#150000
0!
0<
0=
#151000
1!
1<
1=
0c
1_
0`
0a
0b
02
01
00
1/
03
0B
1C
1H
0C
#152000
0!
0<
0=
#153000
1!
1<
1=
1c
13
0H
1@
#154000
0!
0<
0=
#155000
1!
1<
1=
0c
1b
12
03
1H
#156000
0!
0<
0=
#157000
1!
1<
1=
1c
13
0H
1A
0@
#158000
0!
0<
0=
#159000
1!
1<
1=
0c
1a
0b
02
11
03
1H
#160000
0!
0<
0=
#161000
1!
1<
1=
1c
13
0H
1@
#162000
0!
0<
0=
#163000
1!
1<
1=
0c
1b
12
03
1H
#164000
0!
0<
0=
#165000
1!
1<
1=
1c
13
1B
0H
0A
0@
1C
#166000
0!
0<
0=
#167000
1!
1<
1=
0c
1`
0a
0b
02
01
10
03
0B
0D
0C
1H
1D
1C
#168000
0!
0<
0=
#169000
1!
1<
1=
1c
13
0H
1@
#170000
0!
0<
0=
#171000
1!
1<
1=
0c
1b
12
03
1H
#172000
0!
0<
0=
#173000
1!
1<
1=
1c
13
0H
1A
0@
#174000
0!
0<
0=
#175000
1!
1<
1=
0c
1a
0b
02
11
03
1H
#176000
0!
0<
0=
#177000
1!
1<
1=
1c
13
0H
1@
#178000
0!
0<
0=
#179000
1!
1<
1=
0c
1b
12
03
1H
#180000
0!
0<
0=
#181000
1!
1<
1=
1c
13
1E
1B
0H
0A
0@
0D
0C
1F
#182000
0!
0<
0=
#183000
1!
1<
1=
0c
1^
0_
0`
0a
0b
02
01
00
0/
1.
03
0E
0B
1C
0F
1H
0C
1F
#184000
0!
0<
0=
#185000
1!
1<
1=
1c
13
0H
1@
#186000
0!
0<
0=
#187000
1!
1<
1=
0c
1b
12
03
1H
#188000
0!
0<
0=
#189000
1!
1<
1=
1c
13
0H
1A
0@
#190000
0!
0<
0=
#191000
1!
1<
1=
0c
1a
0b
02
11
03
1H
#192000
0!
0<
0=
#193000
1!
1<
1=
1c
13
0H
1@
#194000
0!
0<
0=
#195000
1!
1<
1=
0c
1b
12
03
1H
#196000
0!
0<
0=
#197000
1!
1<
1=
1c
13
1B
0H
0A
0@
1C
#198000
0!
0<
0=
#199000
1!
1<
1=
0c
1`
0a
0b
02
01
10
03
0B
1D
0C
1H
0D
1C
#200000
0!
0<
0=
#201000
1!
1<
1=
1c
13
0H
1@
#202000
0!
0<
0=
#203000
1!
1<
1=
0c
1b
12
03
1H
#204000
0!
0<
0=
#205000
1!
1<
1=
1c
13
0H
1A
0@
#206000
0!
0<
0=
#207000
1!
1<
1=
0c
1a
0b
02
11
03
1H
#208000
0!
0<
0=
#209000
1!
1<
1=
1c
13
0H
1@
#210000
0!
0<
0=
#211000
1!
1<
1=
0c
1b
12
03
1H
#212000
0!
0<
0=
#213000
1!
1<
1=
1c
13
1B
0H
0A
0@
1D
0C
#214000
0!
0<
0=
#215000
1!
1<
1=
0c
1_
0`
0a
0b
02
01
00
1/
03
0B
1C
1H
0C
#216000
0!
0<
0=
#217000
1!
1<
1=
1c
13
0H
1@
#218000
0!
0<
0=
#219000
1!
1<
1=
0c
1b
12
03
1H
#220000
0!
0<
0=
#221000
1!
1<
1=
1c
13
0H
1A
0@
#222000
0!
0<
0=
#223000
1!
1<
1=
0c
1a
0b
02
11
03
1H
#224000
0!
0<
0=
#225000
1!
1<
1=
1c
13
0H
1@
#226000
0!
0<
0=
#227000
1!
1<
1=
0c
1b
12
03
1H
#228000
0!
0<
0=
#229000
1!
1<
1=
1c
13
1B
0H
0A
0@
1C
#230000
0!
0<
0=
#231000
1!
1<
1=
0c
1`
0a
0b
02
01
10
03
0B
0D
0C
1H
1D
1C
#232000
0!
0<
0=
#233000
1!
1<
1=
1c
13
0H
1@
#234000
0!
0<
0=
#235000
1!
1<
1=
0c
1b
12
03
1H
#236000
0!
0<
0=
#237000
1!
1<
1=
1c
13
1G
0H
1A
0@
0Q
1I
0F
0D
0C
0A
#238000
0!
0<
0=
#239000
1!
1<
1=
0i
1h
0c
0^
0_
0`
0b
02
00
0/
0.
03
1,
0-
0G
1Q
0Q
1H
#240000
0!
0<
0=
#241000
1!
1<
1=
1c
13
0H
1@
#242000
0!
0<
0=
#243000
1!
1<
1=
0c
1b
12
03
1H
#244000
0!
0<
0=
#245000
1!
1<
1=
1c
13
0H
1A
0@
#246000
0!
0<
0=
#247000
1!
1<
1=
0c
1a
0b
02
11
03
1H
#248000
0!
0<
0=
#249000
1!
1<
1=
1c
13
0H
1@
#250000
0!
0<
0=
#251000
1!
1<
1=
0c
1b
12
03
1H
#252000
0!
0<
0=
#253000
1!
1<
1=
1c
13
1B
0H
0A
0@
1C
#254000
0!
0<
0=
#255000
1!
1<
1=
0c
1`
0a
0b
02
01
10
03
0B
1D
0C
1H
0D
1C
#256000
0!
0<
0=
#257000
1!
1<
1=
1c
13
0H
1@
#258000
0!
0<
0=
#259000
1!
1<
1=
0c
1b
12
03
1H
#260000
0!
0<
0=
#261000
1!
1<
1=
1c
13
0H
1A
0@
#262000
0!
0<
0=
#263000
1!
1<
1=
0c
1a
0b
02
11
03
1H
#264000
0!
0<
0=
#265000
1!
1<
1=
1c
13
0H
1@
#266000
0!
0<
0=
#267000
1!
1<
1=
0c
1b
12
03
1H
#268000
0!
0<
0=
#269000
1!
1<
1=
1c
13
1B
0H
0A
0@
1D
0C
#270000
0!
0<
0=
#271000
1!
1<
1=
0c
1_
0`
0a
0b
02
01
00
1/
03
0B
1C
1H
0C
#272000
0!
0<
0=
#273000
1!
1<
1=
1c
13
0H
1@
#274000
0!
0<
0=
#275000
1!
1<
1=
0c
1b
12
03
1H
#276000
0!
0<
0=
#277000
1!
1<
1=
1c
13
0H
1A
0@
#278000
0!
0<
0=
#279000
1!
1<
1=
0c
1a
0b
02
11
03
1H
#280000
0!
0<
0=
#281000
1!
1<
1=
1c
13
0H
1@
#282000
0!
0<
0=
#283000
1!
1<
1=
0c
1b
12
03
1H
#284000
0!
0<
0=
#285000
1!
1<
1=
1c
13
1B
0H
0A
0@
1C
#286000
0!
0<
0=
#287000
1!
1<
1=
0c
1`
0a
0b
02
01
10
03
0B
0D
0C
1H
1D
1C
#288000
0!
0<
0=
#289000
1!
1<
1=
1c
13
0H
1@
#290000
0!
0<
0=
#291000
1!
1<
1=
0c
1b
12
03
1H
#292000
0!
0<
0=
#293000
1!
1<
1=
1c
13
0H
1A
0@
#294000
0!
0<
0=
#295000
1!
1<
1=
0c
1a
0b
02
11
03
1H
#296000
0!
0<
0=
#297000
1!
1<
1=
1c
13
0H
1@
#298000
0!
0<
0=
#299000
1!
1<
1=
0c
1b
12
03
1H
#300000
0!
0<
0=
#301000
1!
1<
1=
1c
13
1E
1B
0H
0A
0@
0D
0C
1F
#302000
0!
0<
0=
#303000
1!
1<
1=
0c
1^
0_
0`
0a
0b
02
01
00
0/
1.
03
0E
0B
1C
0F
1H
0C
1F
#304000
0!
0<
0=
#305000
1!
1<
1=
1c
13
0H
1@
#306000
0!
0<
0=
#307000
1!
1<
1=
0c
1b
12
03
1H
#308000
0!
0<
0=
#309000
1!
1<
1=
1c
13
0H
1A
0@
#310000
0!
0<
0=
#311000
1!
1<
1=
0c
1a
0b
02
11
03
1H
#312000
0!
0<
0=
#313000
1!
1<
1=
1c
13
0H
1@
#314000
0!
0<
0=
#315000
1!
1<
1=
0c
1b
12
03
1H
#316000
0!
0<
0=
#317000
1!
1<
1=
1c
13
1B
0H
0A
0@
1C
#318000
0!
0<
0=
#319000
1!
1<
1=
0c
1`
0a
0b
02
01
10
03
0B
1D
0C
1H
0D
1C
#320000
0!
0<
0=
#321000
1!
1<
1=
1c
13
0H
1@
#322000
0!
0<
0=
#323000
1!
1<
1=
0c
1b
12
03
1H
#324000
0!
0<
0=
#325000
1!
1<
1=
1c
13
0H
1A
0@
#326000
0!
0<
0=
#327000
1!
1<
1=
0c
1a
0b
02
11
03
1H
#328000
0!
0<
0=
#329000
1!
1<
1=
1c
13
0H
1@
#330000
0!
0<
0=
#331000
1!
1<
1=
0c
1b
12
03
1H
#332000
0!
0<
0=
#333000
1!
1<
1=
1c
13
1B
0H
0A
0@
1D
0C
#334000
0!
0<
0=
#335000
1!
1<
1=
0c
1_
0`
0a
0b
02
01
00
1/
03
0B
1C
1H
0C
#336000
0!
0<
0=
#337000
1!
1<
1=
1c
13
0H
1@
#338000
0!
0<
0=
#339000
1!
1<
1=
0c
1b
12
03
1H
#340000
0!
0<
0=
#341000
1!
1<
1=
1c
13
0H
1A
0@
#342000
0!
0<
0=
#343000
1!
1<
1=
0c
1a
0b
02
11
03
1H
#344000
0!
0<
0=
#345000
1!
1<
1=
1c
13
0H
1@
#346000
0!
0<
0=
#347000
1!
1<
1=
0c
1b
12
03
1H
#348000
0!
0<
0=
#349000
1!
1<
1=
1c
13
1B
0H
0A
0@
1C
#350000
0!
0<
0=
#351000
1!
1<
1=
0c
1`
0a
0b
02
01
10
03
0B
0D
0C
1H
1D
1C
#352000
0!
0<
0=
#353000
1!
1<
1=
1c
13
0H
1@
#354000
0!
0<
0=
#355000
1!
1<
1=
0c
1b
12
03
1H
#356000
0!
0<
0=
#357000
1!
1<
1=
1c
13
1G
0H
1A
0@
1Q
0F
0D
0C
0A
#358000
0!
0<
0=
#359000
1!
1<
1=
1i
0c
0^
0_
0`
0b
02
00
0/
0.
03
1-
0G
0Q
1J
0I
1Q
0J
1I
1H
#360000
0!
0<
0=
#361000
1!
1<
1=
1c
13
0H
1@
#362000
0!
0<
0=
#363000
1!
1<
1=
0c
1b
12
03
1H
#364000
0!
0<
0=
#365000
1!
1<
1=
1c
13
0H
1A
0@
#366000
0!
0<
0=
#367000
1!
1<
1=
0c
1a
0b
02
11
03
1H
#368000
0!
0<
0=
#369000
1!
1<
1=
1c
13
0H
1@
#370000
0!
0<
0=
#371000
1!
1<
1=
0c
1b
12
03
1H
#372000
0!
0<
0=
#373000
1!
1<
1=
1c
13
1B
0H
0A
0@
1C
#374000
0!
0<
0=
#375000
1!
1<
1=
0c
1`
0a
0b
02
01
10
03
0B
1D
0C
1H
0D
1C
#376000
0!
0<
0=
#377000
1!
1<
1=
1c
13
0H
1@
#378000
0!
0<
0=
#379000
1!
1<
1=
0c
1b
12
03
1H
#380000
0!
0<
0=
#381000
1!
1<
1=
1c
13
0H
1A
0@
#382000
0!
0<
0=
#383000
1!
1<
1=
0c
1a
0b
02
11
03
1H
#384000
0!
0<
0=
#385000
1!
1<
1=
1c
13
0H
1@
#386000
0!
0<
0=
#387000
1!
1<
1=
0c
1b
12
03
1H
#388000
0!
0<
0=
#389000
1!
1<
1=
1c
13
1B
0H
0A
0@
1D
0C
#390000
0!
0<
0=
#391000
1!
1<
1=
0c
1_
0`
0a
0b
02
01
00
1/
03
0B
1C
1H
0C
#392000
0!
0<
0=
#393000
1!
1<
1=
1c
13
0H
1@
#394000
0!
0<
0=
#395000
1!
1<
1=
0c
1b
12
03
1H
#396000
0!
0<
0=
#397000
1!
1<
1=
1c
13
0H
1A
0@
#398000
0!
0<
0=
#399000
1!
1<
1=
0c
1a
0b
02
11
03
1H
#400000
0!
0<
0=
#401000
1!
1<
1=
1c
13
0H
1@
#402000
0!
0<
0=
#403000
1!
1<
1=
0c
1b
12
03
1H
#404000
0!
0<
0=
#405000
1!
1<
1=
1c
13
1B
0H
0A
0@
1C
#406000
0!
0<
0=
#407000
1!
1<
1=
0c
1`
0a
0b
02
01
10
03
0B
0D
0C
1H
1D
1C
#408000
0!
0<
0=
#409000
1!
1<
1=
1c
13
0H
1@
#410000
0!
0<
0=
#411000
1!
1<
1=
0c
1b
12
03
1H
#412000
0!
0<
0=
#413000
1!
1<
1=
1c
13
0H
1A
0@
#414000
0!
0<
0=
#415000
1!
1<
1=
0c
1a
0b
02
11
03
1H
#416000
0!
0<
0=
#417000
1!
1<
1=
1c
13
0H
1@
#418000
0!
0<
0=
#419000
1!
1<
1=
0c
1b
12
03
1H
#420000
0!
0<
0=
#421000
1!
1<
1=
1c
13
1E
1B
0H
0A
0@
0D
0C
1F
#422000
0!
0<
0=
#423000
1!
1<
1=
0c
1^
0_
0`
0a
0b
02
01
00
0/
1.
03
0E
0B
1C
0F
1H
0C
1F
#424000
0!
0<
0=
#425000
1!
1<
1=
1c
13
0H
1@
#426000
0!
0<
0=
#427000
1!
1<
1=
0c
1b
12
03
1H
#428000
0!
0<
0=
#429000
1!
1<
1=
1c
13
0H
1A
0@
#430000
0!
0<
0=
#431000
1!
1<
1=
0c
1a
0b
02
11
03
1H
#432000
0!
0<
0=
#433000
1!
1<
1=
1c
13
0H
1@
#434000
0!
0<
0=
#435000
1!
1<
1=
0c
1b
12
03
1H
#436000
0!
0<
0=
#437000
1!
1<
1=
1c
13
1B
0H
0A
0@
1C
#438000
0!
0<
0=
#439000
1!
1<
1=
0c
1`
0a
0b
02
01
10
03
0B
1D
0C
1H
0D
1C
#440000
0!
0<
0=
#441000
1!
1<
1=
1c
13
0H
1@
#442000
0!
0<
0=
#443000
1!
1<
1=
0c
1b
12
03
1H
#444000
0!
0<
0=
#445000
1!
1<
1=
1c
13
0H
1A
0@
#446000
0!
0<
0=
#447000
1!
1<
1=
0c
1a
0b
02
11
03
1H
#448000
0!
0<
0=
#449000
1!
1<
1=
1c
13
0H
1@
#450000
0!
0<
0=
#451000
1!
1<
1=
0c
1b
12
03
1H
#452000
0!
0<
0=
#453000
1!
1<
1=
1c
13
1B
0H
0A
0@
1D
0C
#454000
0!
0<
0=
#455000
1!
1<
1=
0c
1_
0`
0a
0b
02
01
00
1/
03
0B
1C
1H
0C
#456000
0!
0<
0=
#457000
1!
1<
1=
1c
13
0H
1@
#458000
0!
0<
0=
#459000
1!
1<
1=
0c
1b
12
03
1H
#460000
0!
0<
0=
#461000
1!
1<
1=
1c
13
0H
1A
0@
#462000
0!
0<
0=
#463000
1!
1<
1=
0c
1a
0b
02
11
03
1H
#464000
0!
0<
0=
#465000
1!
1<
1=
1c
13
0H
1@
#466000
0!
0<
0=
#467000
1!
1<
1=
0c
1b
12
03
1H
#468000
0!
0<
0=
#469000
1!
1<
1=
1c
13
1B
0H
0A
0@
1C
#470000
0!
0<
0=
#471000
1!
1<
1=
0c
1`
0a
0b
02
01
10
03
0B
0D
0C
1H
1D
1C
#472000
0!
0<
0=
#473000
1!
1<
1=
1c
13
0H
1@
#474000
0!
0<
0=
#475000
1!
1<
1=
0c
1b
12
03
1H
#476000
0!
0<
0=
#477000
1!
1<
1=
1c
13
1G
0H
1A
0@
0Q
1J
0I
0F
0D
0C
0A
#478000
0!
0<
0=
#479000
1!
1<
1=
0i
1g
0h
0c
0^
0_
0`
0b
02
00
0/
0.
03
0,
1+
0-
0G
1Q
0Q
1H
#480000
0!
0<
0=
#481000
1!
1<
1=
1c
13
0H
1@
#482000
0!
0<
0=
#483000
1!
1<
1=
0c
1b
12
03
1H
#484000
0!
0<
0=
#485000
1!
1<
1=
1c
13
0H
1A
0@
#486000
0!
0<
0=
#487000
1!
1<
1=
0c
1a
0b
02
11
03
1H
#488000
0!
0<
0=
#489000
1!
1<
1=
1c
13
0H
1@
#490000
0!
0<
0=
#491000
1!
1<
1=
0c
1b
12
03
1H
#492000
0!
0<
0=
#493000
1!
1<
1=
1c
13
1B
0H
0A
0@
1C
#494000
0!
0<
0=
#495000
1!
1<
1=
0c
1`
0a
0b
02
01
10
03
0B
1D
0C
1H
0D
1C
#496000
0!
0<
0=
#497000
1!
1<
1=
1c
13
0H
1@
#498000
0!
0<
0=
#499000
1!
1<
1=
0c
1b
12
03
1H
#500000
0!
0<
0=
#501000
1!
1<
1=
1c
13
0H
1A
0@
#502000
0!
0<
0=
#503000
1!
1<
1=
0c
1a
0b
02
11
03
1H
#504000
0!
0<
0=
#505000
1!
1<
1=
1c
13
0H
1@
#506000
0!
0<
0=
#507000
1!
1<
1=
0c
1b
12
03
1H
#508000
0!
0<
0=
#509000
1!
1<
1=
1c
13
1B
0H
0A
0@
1D
0C
#510000
0!
0<
0=
#511000
1!
1<
1=
0c
1_
0`
0a
0b
02
01
00
1/
03
0B
1C
1H
0C
#512000
0!
0<
0=
#513000
1!
1<
1=
1c
13
0H
1@
#514000
0!
0<
0=
#515000
1!
1<
1=
0c
1b
12
03
1H
#516000
0!
0<
0=
#517000
1!
1<
1=
1c
13
0H
1A
0@
#518000
0!
0<
0=
#519000
1!
1<
1=
0c
1a
0b
02
11
03
1H
#520000
0!
0<
0=
#521000
1!
1<
1=
1c
13
0H
1@
#522000
0!
0<
0=
#523000
1!
1<
1=
0c
1b
12
03
1H
#524000
0!
0<
0=
#525000
1!
1<
1=
1c
13
1B
0H
0A
0@
1C
#526000
0!
0<
0=
#527000
1!
1<
1=
0c
1`
0a
0b
02
01
10
03
0B
0D
0C
1H
1D
1C
#528000
0!
0<
0=
#529000
1!
1<
1=
1c
13
0H
1@
#530000
0!
0<
0=
#531000
1!
1<
1=
0c
1b
12
03
1H
#532000
0!
0<
0=
#533000
1!
1<
1=
1c
13
0H
1A
0@
#534000
0!
0<
0=
#535000
1!
1<
1=
0c
1a
0b
02
11
03
1H
#536000
0!
0<
0=
#537000
1!
1<
1=
1c
13
0H
1@
#538000
0!
0<
0=
#539000
1!
1<
1=
0c
1b
12
03
1H
#540000
0!
0<
0=
#541000
1!
1<
1=
1c
13
1E
1B
0H
0A
0@
0D
0C
1F
#542000
0!
0<
0=
#543000
1!
1<
1=
0c
1^
0_
0`
0a
0b
02
01
00
0/
1.
03
0E
0B
1C
0F
1H
0C
1F
#544000
0!
0<
0=
#545000
1!
1<
1=
1c
13
0H
1@
#546000
0!
0<
0=
#547000
1!
1<
1=
0c
1b
12
03
1H
#548000
0!
0<
0=
#549000
1!
1<
1=
1c
13
0H
1A
0@
#550000
0!
0<
0=
#551000
1!
1<
1=
0c
1a
0b
02
11
03
1H
#552000
0!
0<
0=
#553000
1!
1<
1=
1c
13
0H
1@
#554000
0!
0<
0=
#555000
1!
1<
1=
0c
1b
12
03
1H
#556000
0!
0<
0=
#557000
1!
1<
1=
1c
13
1B
0H
0A
0@
1C
#558000
0!
0<
0=
#559000
1!
1<
1=
0c
1`
0a
0b
02
01
10
03
0B
1D
0C
1H
0D
1C
#560000
0!
0<
0=
#561000
1!
1<
1=
1c
13
0H
1@
#562000
0!
0<
0=
#563000
1!
1<
1=
0c
1b
12
03
1H
#564000
0!
0<
0=
#565000
1!
1<
1=
1c
13
0H
1A
0@
#566000
0!
0<
0=
#567000
1!
1<
1=
0c
1a
0b
02
11
03
1H
#568000
0!
0<
0=
#569000
1!
1<
1=
1c
13
0H
1@
#570000
0!
0<
0=
#571000
1!
1<
1=
0c
1b
12
03
1H
#572000
0!
0<
0=
#573000
1!
1<
1=
1c
13
1B
0H
0A
0@
1D
0C
#574000
0!
0<
0=
#575000
1!
1<
1=
0c
1_
0`
0a
0b
02
01
00
1/
03
0B
1C
1H
0C
#576000
0!
0<
0=
#577000
1!
1<
1=
1c
13
0H
1@
#578000
0!
0<
0=
#579000
1!
1<
1=
0c
1b
12
03
1H
#580000
0!
0<
0=
#581000
1!
1<
1=
1c
13
0H
1A
0@
#582000
0!
0<
0=
#583000
1!
1<
1=
0c
1a
0b
02
11
03
1H
